,Ozone,Test,Solar.R1,Solar.R2,Wind,Temp,Month
1,41,TRUE,NA,NA,7.4,67,NA
2,NA,TRUE,118,118,8,NA,5
3,12,TRUE,149,149,12.6,NA,5
4,18,TRUE,313,313,11.5,62,5
5,NA,TRUE,NA,NA,14.3,56,5
6,28,TRUE,NA,NA,14.9,66,5
7,23,TRUE,,,8.6,65,5
8,19,TRUE,99,99,13.8,59,5
9,8,TRUE,19,19,20.1,61,5
10,NA,TRUE,194,194,8.6,69,5
11,7,TRUE,NA,NA,6.9,74,5
12,16,TRUE,256,256,9.7,69,5
13,11,TRUE,290,290,9.2,66,5
14,14,TRUE,274,274,10.9,68,5
14,14,TRUE,274,274,10.9,68,5
13,11,TRUE,290,290,9.2,66,5
,,TRUE,,,,,
,,TRUE,,,,,
20,11,TRUE,44,44,9.7,62,5
20,11,TRUE,44,44,9.7,62,5
21,1,TRUE,8,8,9.7,59,5
22,11,TRUE,320,320,16.6,73,5
23,4,TRUE,25,25,9.7,61,5
24,32,TRUE,92,92,12,61,5
25,NA,TRUE,66,66,16.6,57,5
26,NA,TRUE,266,266,14.9,58,5
27,NA,TRUE,NA,NA,8,57,5
28,23,TRUE,13,13,12,67,5
29,45,TRUE,252,252,14.9,81,15
30,115,TRUE,223,223,5.7,79,5
31,37,TRUE,279,279,7.4,76,5
32,NA,TRUE,286,286,8.6,78,6
33,NA,TRUE,287,287,9.7,74,6
34,NA,TRUE,242,242,16.1,67,6
35,NA,TRUE,186,186,9.2,84,6
36,NA,TRUE,220,220,8.6,85,6
37,NA,TRUE,264,264,14.3,79,6
38,29,TRUE,127,127,9.7,82,6
39,NA,TRUE,273,273,6.9,87,6
40,71,TRUE,291,291,13.8,90,6
41,39,TRUE,323,323,11.5,87,6
42,NA,TRUE,259,259,10.9,93,6
43,NA,TRUE,250,250,9.2,92,6
44,23,TRUE,148,148,8,82,6
45,NA,TRUE,332,332,13.8,80,6
46,NA,TRUE,322,322,11.5,79,6
47,21,TRUE,191,191,14.9,77,6
48,37,TRUE,284,284,20.7,72,6
49,20,TRUE,37,37,9.2,65,6
50,12,TRUE,120,120,11.5,73,6
51,13,TRUE,137,137,10.3,76,6
52,NA,TRUE,150,150,6.3,77,6
53,NA,TRUE,59,59,1.7,76,6
54,NA,TRUE,91,91,4.6,76,6
55,NA,TRUE,250,250,6.3,76,6
56,NA,TRUE,135,135,8,75,6
57,NA,TRUE,127,127,8,78,6
58,NA,TRUE,47,47,10.3,73,6
59,NA,TRUE,98,98,11.5,80,6
60,NA,TRUE,31,31,14.9,77,6
61,NA,TRUE,138,138,8,83,6
62,135,TRUE,269,269,4.1,84,7
63,49,TRUE,248,248,9.2,85,7
64,32,TRUE,236,236,9.2,81,7
65,NA,TRUE,101,101,10.9,84,7
66,64,TRUE,175,175,4.6,83,7
67,40,TRUE,314,314,10.9,83,7
68,77,TRUE,276,276,5.1,88,7
69,97,TRUE,267,267,6.3,92,7
70,97,TRUE,272,272,5.7,92,7
71,85,TRUE,175,175,7.4,89,7
72,NA,TRUE,139,139,8.6,82,7
73,10,TRUE,264,264,14.3,73,7
74,27,TRUE,175,175,14.9,81,70
75,NA,TRUE,291,291,14.9,91,7
76,7,TRUE,48,48,14.3,80,7
77,48,TRUE,260,260,6.9,81,7
78,35,TRUE,274,274,10.3,82,7
79,61,TRUE,285,285,6.3,84,7
80,79,TRUE,187,187,5.1,87,7
81,63,TRUE,220,220,11.5,85,7
82,16,TRUE,7,7,6.9,74,7
83,NA,TRUE,258,258,9.7,81,7
84,NA,TRUE,295,295,11.5,82,7
85,80,TRUE,294,294,8.6,86,7
86,108,TRUE,223,223,8,85,7
87,20,TRUE,81,81,8.6,82,7
88,52,TRUE,82,82,12,86,7
89,82,TRUE,213,213,7.4,88,7
90,50,TRUE,275,275,7.4,86,7
91,64,TRUE,253,253,7.4,83,7
92,59,TRUE,254,254,9.2,81,7
93,39,TRUE,83,83,6.9,81,8
94,9,TRUE,24,24,13.8,81,8
95,16,TRUE,77,77,7.4,82,8
96,78,TRUE,NA,NA,6.9,86,8
97,35,TRUE,NA,NA,7.4,85,8
98,66,TRUE,NA,NA,4.6,87,8
99,122,TRUE,255,255,4,89,8
100,89,TRUE,229,229,10.3,90,8
